{
  "EID": "90",
  "CreateSupplierGroup": "Y",
  "Organization": "บริษัท เดอะมอลล์กรุ๊ป จำกัด",
  "ActiveSessionURL": "http://tmgep.demo.pantavanij.com/Portal.jrpc?smd=2&method=updateEPSession",
  "SysUserID": "13022",
  "SID": "f18c1da6ea594058d034a76bb2d6de4b|90",
  "Name": "&amp;#3592;&amp;#3633;&amp;#3604;&amp;#3595;&amp;#3639;&amp;#3657;&amp;#3629;&amp;#3626;&amp;#3634;&amp;#3586;&amp;#3634; PSB02(PSB02)",
  "SessionTimeoutURL": "http://tmgep.demo.pantavanij.com/InvalidSession.action",
  "HeaderInfo": {
    "TopMenu": [
      {
        "DisplayName": "HOME",
        "Icon": "ep_ico_all_service",
        "DisplayNameTH": "หน้าแรก",
        "URL": "http://tmgep.demo.pantavanij.com/tmg/PortalHome.action?sid=f18c1da6ea594058d034a76bb2d6de4b|90&eid=90"
      },
      {
        "DisplayName": "PROFILE",
        "Icon": "ep_ico_profile",
        "DisplayNameTH": "ข้อมูลส่วนตัว",
        "URL": "http://tmgep.demo.pantavanij.com/tmg/PortalRequest.action?sid=f18c1da6ea594058d034a76bb2d6de4b|90&eid=90&page=all_profile"
      },
      {
        "DisplayName": "MANUAL",
        "Icon": "ep_ico_manual",
        "DisplayContent": [
          {
            "content_list": [
              {
                "display_url": "http://tmgep.demo.pantavanij.com/manual/Quick_Reference_TMG_CreatePR.pdf?sid=f18c1da6ea594058d034a76bb2d6de4b|90",
                "content": "การเปิดใบขอซื้อu001f Create New PR"
              },
              {
                "display_url": "http://tmgep.demo.pantavanij.com/manual/Quick_Reference_TMG_GR.pdf?sid=f18c1da6ea594058d034a76bb2d6de4b|90",
                "content": "การทำรับสินค้า Goods Receipt"
              },
              {
                "display_url": "http://tmgep.demo.pantavanij.com/manual/Quick_Reference_TMG_Approve.pdf?sid=f18c1da6ea594058d034a76bb2d6de4b|90",
                "content": "การอนุมัติใบขอซื้อ Approve PR"
              }
            ],
            "topic": "PURCHASING PROCESS"
          }
        ],
        "DisplayNameTH": "คู่มือการใช้งาน"
      },
      {
        "DisplayName": "CONTACT",
        "Icon": "ep_ico_contact",
        "DisplayContent": [
          {
            "content_list": [
              {
                "content": "Operation Hours: Monday - Friday 8:30-18:00<br/>Customer Care Hotline: 0-2034-4333 Fax: 0-2679-7474<br/>Email: <a href=\"mailto: customercare@pantavanij.com\">customercare@pantavanij.com</a>"
              }
            ],
            "topic": "Contact Customer Care"
          },
          {
            "content_list": [
              {
                "content":
                "เวลาทำการของเจ้าหน้าที่ วันจันทร์ - วันศุกร์ เวลา 8:30 น. - 18:00 น.<br/>โทรศัพท์ 0-2034-4333 Fax: 0-2679-7474<br/>อีเมล์: <a href=\"mailto: customercare@pantavanij.com\">customercare@pantavanij.com</a>"
              }
            ],
            "topic": "ส่วนบริการให้ความช่วยเหลือการใช้งานระบบทางโทรศัพท์ (Customer Care)"
          }
        ],
        "DisplayNameTH": "ติดต่อเรา"
      },
      {
        "DisplayName": "LOGOUT",
        "Icon": "ep_ico_logout",
        "DisplayNameTH": "ออกจากระบบ",
        "URL": "http://tmgep.demo.pantavanij.com/tmg/Logout.action?sid=f18c1da6ea594058d034a76bb2d6de4b|90&eid=90"
      }
    ],
    "CustomerLogoURL": "http://tmgep.demo.pantavanij.com/ebd/EBOImages/EBO90.gif"
  },
  "result": "SUCCESS",
  "LanguageCode": "th",
  "EPURL": "http://ep.demo.pantavanij.com/",
  "HeaderType": "EP",
  "CreateERFX": "Y",
  "Client": "tmg",
  "REQID": "11C9F399A1B54486956B50F7867FD8FF"
}