<?xml version="1.0" standalone="no"?>
<!DOCTYPE svg PUBLIC "-//W3C//DTD SVG 1.1//EN" "http://www.w3.org/Graphics/SVG/1.1/DTD/svg11.dtd" >
<svg xmlns="http://www.w3.org/2000/svg">
<metadata>Generated by IcoMoon</metadata>
<defs>
<font id="icomoon" horiz-adv-x="1024">
<font-face units-per-em="1024" ascent="960" descent="-64" />
<missing-glyph horiz-adv-x="1024" />
<glyph unicode="&#x20;" horiz-adv-x="512" d="" />
<glyph unicode="&#xe911;" glyph-name="pdpa-cancel" d="M202.557 759.163c16.662 16.662 43.677 16.662 60.34 0v0l249.069-249.093 249.136 249.093c16.662 16.662 43.677 16.662 60.34 0l1.721-1.721c16.662-16.662 16.662-43.677 0-60.34l-249.117-249.069 249.117-249.136c15.381-15.381 16.564-39.583 3.549-56.32l-3.549-4.020-1.721-1.721c-16.662-16.662-43.677-16.662-60.34 0v0l-249.136 249.117-249.069-249.117c-16.662-16.662-43.677-16.662-60.34 0l-1.721 1.721c-16.662 16.662-16.662 43.677 0 60.34l249.093 249.136-249.093 249.069c-15.381 15.381-16.564 39.583-3.549 56.32l3.549 4.020z" />
<glyph unicode="&#xe93e;" d="M512 874.667c109.846 0 182.621-169.764 191.157-384.009l150.176 0.009c23.564 0 42.667-19.103 42.667-42.667s-19.103-42.667-42.667-42.667l-150.178-0.033c-8.544-214.226-81.316-383.967-191.155-383.967s-182.611 169.741-191.155 383.967l-150.178 0.033c-23.564 0-42.667 19.103-42.667 42.667s19.103 42.667 42.667 42.667l150.176-0.009c8.536 214.246 81.311 384.009 191.157 384.009zM617.677 405.303h-211.353c7.89-169.654 61.417-298.636 105.677-298.636s97.787 128.982 105.677 298.636zM512 789.333c-44.263 0-97.796-129.004-105.679-298.679h211.357c-7.883 169.675-61.416 298.679-105.679 298.679z" />
<glyph unicode="&#xe93f;" d="M512 21.333c235.641 0 426.667 191.025 426.667 426.667s-191.025 426.667-426.667 426.667c-235.641 0-426.667-191.025-426.667-426.667s191.025-426.667 426.667-426.667zM512 106.667c-188.513 0-341.333 152.82-341.333 341.333s152.82 341.333 341.333 341.333c188.513 0 341.333-152.82 341.333-341.333s-152.82-341.333-341.333-341.333z" />
<glyph unicode="&#xe9abc;" glyph-name="pdpa-small-dropdown" d="M542.17 247.163l341.333 341.333c26.879 26.879 7.842 72.837-30.17 72.837h-682.667c-38.012 0-57.048-45.958-30.17-72.837l341.333-341.333c16.662-16.662 43.677-16.662 60.34 0z" />
</font></defs></svg>